<svg xmlns="http://www.w3.org/2000/svg" width="221" height="56" fill="none">
	<path fill="#32008c"
				d="M53.602 0H35.094L20.876 20.118h-5.448V0H0v55.668h15.428V35.546h5.448l14.218 20.122h18.508L33.94 27.832 53.602 0ZM58.048 0v13.123h44.776V0H58.048Zm0 55.637h44.776V42.514H58.048v13.123Zm0-21.257h44.776V21.257H58.048V34.38ZM111.089 0h26.328c8.511 0 14.391 2.227 18.134 6.045 3.26 3.181 4.929 7.474 4.929 12.961v.157c0 8.512-4.536 14.156-11.453 17.098l13.28 19.403h-17.813l-11.209-16.858h-6.764v16.858h-15.428L111.089 0Zm25.609 26.72c5.247 0 8.272-2.545 8.272-6.602v-.157c0-4.376-3.178-6.603-8.347-6.603h-10.102v13.363h10.177ZM168.265 0h14.395l22.907 29.423V0h15.267v55.668h-13.52L183.54 25.13v30.538h-15.271L168.265 0Z"/>
</svg>
